Pete Buttigieg
Tom Steyer

Elizabeth Warren

Tom Steyer
Bernie Sanders

Mike Gravel

Michael Bennett

Marianne Williamson

Amy Klobuchar

Beto O'Rourke

Jay Inslee
Tom Steyer
Kamala Harris
Joe Biden
Michael Bennett

Mike Gravel

Jay Inslee

John Hickenlooper

Bill de Blasio

Michael Bloomberg
Michael Bennett

Marianne Williamson
